[
  {
    "page": 1,
    "pages": 2,
    "per_page": "50",
    "total": 57
  },
  [
    {
      "indicator": {
        "id": "NY.GDP.MKTP.CD",
        "value": "GDP (current US$)"
      },
      "country": {
        "id": "NO",
        "value": "Norway"
      },
      "value": "386383919342.271",
      "decimal": "0",
      "date": "2009"
    },
    {
      "indicator": {
        "id": "NY.GDP.MKTP.CD",
        "value": "GDP (current US$)"
      },
      "country": {
        "id": "NO",
        "value": "Norway"
      },
      "value": "461946808510.638",
      "decimal": "0",
      "date": "2008"
    },
    {
      "indicator": {
        "id": "NY.GDP.MKTP.CD",
        "value": "GDP (current US$)"
      },
      "country": {
        "id": "NO",
        "value": "Norway"
      },
      "value": "400883873279.083",
      "decimal": "0",
      "date": "2007"
    },
    {
      "indicator": {
        "id": "NY.GDP.MKTP.CD",
        "value": "GDP (current US$)"
      },
      "country": {
        "id": "NO",
        "value": "Norway"
      },
      "value": "345424664369.357",
      "decimal": "0",
      "date": "2006"
    },
    {
      "indicator": {
        "id": "NY.GDP.MKTP.CD",
        "value": "GDP (current US$)"
      },
      "country": {
        "id": "NO",
        "value": "Norway"
      },
      "value": "308722079937.912",
      "decimal": "0",
      "date": "2005"
    },
    {
      "indicator": {
        "id": "NY.GDP.MKTP.CD",
        "value": "GDP (current US$)"
      },
      "country": {
        "id": "NO",
        "value": "Norway"
      },
      "value": "264357494659.388",
      "decimal": "0",
      "date": "2004"
    },
    {
      "indicator": {
        "id": "NY.GDP.MKTP.CD",
        "value": "GDP (current US$)"
      },
      "country": {
        "id": "NO",
        "value": "Norway"
      },
      "value": "228752436371.854",
      "decimal": "0",
      "date": "2003"
    },
    {
      "indicator": {
        "id": "NY.GDP.MKTP.CD",
        "value": "GDP (current US$)"
      },
      "country": {
        "id": "NO",
        "value": "Norway"
      },
      "value": "195418347152.985",
      "decimal": "0",
      "date": "2002"
    },
    {
      "indicator": {
        "id": "NY.GDP.MKTP.CD",
        "value": "GDP (current US$)"
      },
      "country": {
        "id": "NO",
        "value": "Norway"
      },
      "value": "174003247439.305",
      "decimal": "0",
      "date": "2001"
    },
    {
      "indicator": {
        "id": "NY.GDP.MKTP.CD",
        "value": "GDP (current US$)"
      },
      "country": {
        "id": "NO",
        "value": "Norway"
      },
      "value": "171315639982.731",
      "decimal": "0",
      "date": "2000"
    },
    {
      "indicator": {
        "id": "NY.GDP.MKTP.CD",
        "value": "GDP (current US$)"
      },
      "country": {
        "id": "NO",
        "value": "Norway"
      },
      "value": "162286003692.686",
      "decimal": "0",
      "date": "1999"
    },
    {
      "indicator": {
        "id": "NY.GDP.MKTP.CD",
        "value": "GDP (current US$)"
      },
      "country": {
        "id": "NO",
        "value": "Norway"
      },
      "value": "154165219811.533",
      "decimal": "0",
      "date": "1998"
    },
    {
      "indicator": {
        "id": "NY.GDP.MKTP.CD",
        "value": "GDP (current US$)"
      },
      "country": {
        "id": "NO",
        "value": "Norway"
      },
      "value": "161354369892.838",
      "decimal": "0",
      "date": "1997"
    },
    {
      "indicator": {
        "id": "NY.GDP.MKTP.CD",
        "value": "GDP (current US$)"
      },
      "country": {
        "id": "NO",
        "value": "Norway"
      },
      "value": "163517783497.163",
      "decimal": "0",
      "date": "1996"
    },
    {
      "indicator": {
        "id": "NY.GDP.MKTP.CD",
        "value": "GDP (current US$)"
      },
      "country": {
        "id": "NO",
        "value": "Norway"
      },
      "value": "152027402449.804",
      "decimal": "0",
      "date": "1995"
    },
    {
      "indicator": {
        "id": "NY.GDP.MKTP.CD",
        "value": "GDP (current US$)"
      },
      "country": {
        "id": "NO",
        "value": "Norway"
      },
      "value": "127131461119.927",
      "decimal": "0",
      "date": "1994"
    },
    {
      "indicator": {
        "id": "NY.GDP.MKTP.CD",
        "value": "GDP (current US$)"
      },
      "country": {
        "id": "NO",
        "value": "Norway"
      },
      "value": "120579072750.596",
      "decimal": "0",
      "date": "1993"
    },
    {
      "indicator": {
        "id": "NY.GDP.MKTP.CD",
        "value": "GDP (current US$)"
      },
      "country": {
        "id": "NO",
        "value": "Norway"
      },
      "value": "130838040067.584",
      "decimal": "0",
      "date": "1992"
    },
    {
      "indicator": {
        "id": "NY.GDP.MKTP.CD",
        "value": "GDP (current US$)"
      },
      "country": {
        "id": "NO",
        "value": "Norway"
      },
      "value": "121872464483.487",
      "decimal": "0",
      "date": "1991"
    },
    {
      "indicator": {
        "id": "NY.GDP.MKTP.CD",
        "value": "GDP (current US$)"
      },
      "country": {
        "id": "NO",
        "value": "Norway"
      },
      "value": "119791683307.507",
      "decimal": "0",
      "date": "1990"
    },
    {
      "indicator": {
        "id": "NY.GDP.MKTP.CD",
        "value": "GDP (current US$)"
      },
      "country": {
        "id": "NO",
        "value": "Norway"
      },
      "value": "102633789557.535",
      "decimal": "0",
      "date": "1989"
    },
    {
      "indicator": {
        "id": "NY.GDP.MKTP.CD",
        "value": "GDP (current US$)"
      },
      "country": {
        "id": "NO",
        "value": "Norway"
      },
      "value": "101900260856.222",
      "decimal": "0",
      "date": "1988"
    },
    {
      "indicator": {
        "id": "NY.GDP.MKTP.CD",
        "value": "GDP (current US$)"
      },
      "country": {
        "id": "NO",
        "value": "Norway"
      },
      "value": "94230055658.6271",
      "decimal": "0",
      "date": "1987"
    },
    {
      "indicator": {
        "id": "NY.GDP.MKTP.CD",
        "value": "GDP (current US$)"
      },
      "country": {
        "id": "NO",
        "value": "Norway"
      },
      "value": "78693253275.995",
      "decimal": "0",
      "date": "1986"
    },
    {
      "indicator": {
        "id": "NY.GDP.MKTP.CD",
        "value": "GDP (current US$)"
      },
      "country": {
        "id": "NO",
        "value": "Norway"
      },
      "value": "65416879914.3907",
      "decimal": "0",
      "date": "1985"
    },
    {
      "indicator": {
        "id": "NY.GDP.MKTP.CD",
        "value": "GDP (current US$)"
      },
      "country": {
        "id": "NO",
        "value": "Norway"
      },
      "value": "62057955032.7758",
      "decimal": "0",
      "date": "1984"
    },
    {
      "indicator": {
        "id": "NY.GDP.MKTP.CD",
        "value": "GDP (current US$)"
      },
      "country": {
        "id": "NO",
        "value": "Norway"
      },
      "value": "61627240831.0948",
      "decimal": "0",
      "date": "1983"
    },
    {
      "indicator": {
        "id": "NY.GDP.MKTP.CD",
        "value": "GDP (current US$)"
      },
      "country": {
        "id": "NO",
        "value": "Norway"
      },
      "value": "62647195537.6511",
      "decimal": "0",
      "date": "1982"
    },
    {
      "indicator": {
        "id": "NY.GDP.MKTP.CD",
        "value": "GDP (current US$)"
      },
      "country": {
        "id": "NO",
        "value": "Norway"
      },
      "value": "63596654760.8677",
      "decimal": "0",
      "date": "1981"
    },
    {
      "indicator": {
        "id": "NY.GDP.MKTP.CD",
        "value": "GDP (current US$)"
      },
      "country": {
        "id": "NO",
        "value": "Norway"
      },
      "value": "64439382896.0156",
      "decimal": "0",
      "date": "1980"
    },
    {
      "indicator": {
        "id": "NY.GDP.MKTP.CD",
        "value": "GDP (current US$)"
      },
      "country": {
        "id": "NO",
        "value": "Norway"
      },
      "value": "53132244623.9213",
      "decimal": "0",
      "date": "1979"
    },
    {
      "indicator": {
        "id": "NY.GDP.MKTP.CD",
        "value": "GDP (current US$)"
      },
      "country": {
        "id": "NO",
        "value": "Norway"
      },
      "value": "46523091009.6713",
      "decimal": "0",
      "date": "1978"
    },
    {
      "indicator": {
        "id": "NY.GDP.MKTP.CD",
        "value": "GDP (current US$)"
      },
      "country": {
        "id": "NO",
        "value": "Norway"
      },
      "value": "41508030431.1074",
      "decimal": "0",
      "date": "1977"
    },
    {
      "indicator": {
        "id": "NY.GDP.MKTP.CD",
        "value": "GDP (current US$)"
      },
      "country": {
        "id": "NO",
        "value": "Norway"
      },
      "value": "35942270686.3374",
      "decimal": "0",
      "date": "1976"
    },
    {
      "indicator": {
        "id": "NY.GDP.MKTP.CD",
        "value": "GDP (current US$)"
      },
      "country": {
        "id": "NO",
        "value": "Norway"
      },
      "value": "32877805200.023",
      "decimal": "0",
      "date": "1975"
    },
    {
      "indicator": {
        "id": "NY.GDP.MKTP.CD",
        "value": "GDP (current US$)"
      },
      "country": {
        "id": "NO",
        "value": "Norway"
      },
      "value": "27145693810.1341",
      "decimal": "0",
      "date": "1974"
    },
    {
      "indicator": {
        "id": "NY.GDP.MKTP.CD",
        "value": "GDP (current US$)"
      },
      "country": {
        "id": "NO",
        "value": "Norway"
      },
      "value": "22534253702.8686",
      "decimal": "0",
      "date": "1973"
    },
    {
      "indicator": {
        "id": "NY.GDP.MKTP.CD",
        "value": "GDP (current US$)"
      },
      "country": {
        "id": "NO",
        "value": "Norway"
      },
      "value": "17358610849.701",
      "decimal": "0",
      "date": "1972"
    },
    {
      "indicator": {
        "id": "NY.GDP.MKTP.CD",
        "value": "GDP (current US$)"
      },
      "country": {
        "id": "NO",
        "value": "Norway"
      },
      "value": "14583114840.0629",
      "decimal": "0",
      "date": "1971"
    },
    {
      "indicator": {
        "id": "NY.GDP.MKTP.CD",
        "value": "GDP (current US$)"
      },
      "country": {
        "id": "NO",
        "value": "Norway"
      },
      "value": "12814123115.2613",
      "decimal": "0",
      "date": "1970"
    },
    {
      "indicator": {
        "id": "NY.GDP.MKTP.CD",
        "value": "GDP (current US$)"
      },
      "country": {
        "id": "NO",
        "value": "Norway"
      },
      "value": "11063065083.4888",
      "decimal": "0",
      "date": "1969"
    },
    {
      "indicator": {
        "id": "NY.GDP.MKTP.CD",
        "value": "GDP (current US$)"
      },
      "country": {
        "id": "NO",
        "value": "Norway"
      },
      "value": "10159934136.7838",
      "decimal": "0",
      "date": "1968"
    },
    {
      "indicator": {
        "id": "NY.GDP.MKTP.CD",
        "value": "GDP (current US$)"
      },
      "country": {
        "id": "NO",
        "value": "Norway"
      },
      "value": "9514496703.39762",
      "decimal": "0",
      "date": "1967"
    },
    {
      "indicator": {
        "id": "NY.GDP.MKTP.CD",
        "value": "GDP (current US$)"
      },
      "country": {
        "id": "NO",
        "value": "Norway"
      },
      "value": "8696460205.3397",
      "decimal": "0",
      "date": "1966"
    },
    {
      "indicator": {
        "id": "NY.GDP.MKTP.CD",
        "value": "GDP (current US$)"
      },
      "country": {
        "id": "NO",
        "value": "Norway"
      },
      "value": "8058681060.159",
      "decimal": "0",
      "date": "1965"
    },
    {
      "indicator": {
        "id": "NY.GDP.MKTP.CD",
        "value": "GDP (current US$)"
      },
      "country": {
        "id": "NO",
        "value": "Norway"
      },
      "value": "7159202706.48027",
      "decimal": "0",
      "date": "1964"
    },
    {
      "indicator": {
        "id": "NY.GDP.MKTP.CD",
        "value": "GDP (current US$)"
      },
      "country": {
        "id": "NO",
        "value": "Norway"
      },
      "value": "6510239502.76489",
      "decimal": "0",
      "date": "1963"
    },
    {
      "indicator": {
        "id": "NY.GDP.MKTP.CD",
        "value": "GDP (current US$)"
      },
      "country": {
        "id": "NO",
        "value": "Norway"
      },
      "value": "6066976682.67364",
      "decimal": "0",
      "date": "1962"
    },
    {
      "indicator": {
        "id": "NY.GDP.MKTP.CD",
        "value": "GDP (current US$)"
      },
      "country": {
        "id": "NO",
        "value": "Norway"
      },
      "value": "5632460936.54576",
      "decimal": "0",
      "date": "1961"
    },
    {
      "indicator": {
        "id": "NY.GDP.MKTP.CD",
        "value": "GDP (current US$)"
      },
      "country": {
        "id": "NO",
        "value": "Norway"
      },
      "value": "5163271598.15702",
      "decimal": "0",
      "date": "1960"
    }
  ]
]
